{
    "response": {
        "version": "0.1",
        "termsofService": "http://www.wunderground.com/weather/api/d/terms.html",
        "features": {
            "conditions": 1
        }
    },
    "current_observation": {
        "image": {
            "url": "http://icons.wxug.com/graphics/wu2/logo_130x80.png",
            "title": "Weather Underground",
            "link": "http://www.wunderground.com"
        },
        "display_location": {
            "full": "Hartley Wespall, United Kingdom",
            "city": "Hartley Wespall",
            "state": "",
            "state_name": "United Kingdom",
            "country": "UK",
            "country_iso3166": "GB",
            "zip": "00000",
            "magic": "56",
            "wmo": "03761",
            "longitude": "-1.000000",
            "elevation": "54.00000000"
        },
        "observation_location": {
            "full": "Buckland Terrace, Chineham, ",
            "city": "Buckland Terrace, Chineham",
            "state": "",
            "country": "GB",
            "country_iso3166": "GB",
            "latitude": "51.302277",
            "longitude": "-1.048548",
            "elevation": "236 ft"
        },
        "estimated": {},
        "station_id": "ICHINEHA7",
        "observation_time": "Last Updated on August 18, 9:32 AM BST",
        "observation_time_rfc822": "Thu, 18 Aug 2016 09:32:51 +0100",
        "observation_epoch": "1471509171",
        "local_time_rfc822": "Thu, 18 Aug 2016 09:33:30 +0100",
        "local_epoch": "1471509210",
        "local_tz_short": "BST",
        "local_tz_long": "Europe/London",
        "local_tz_offset": "+0100",
        "weather": "Haze",
        "temperature_string": "64.0 F (17.8 C)",
        "temp_f": 64.0,
        "temp_c": 17.8,
        "relative_humidity": "84%",
        "wind_string": "Calm",
        "wind_dir": "North",
        "wind_degrees": 0,
        "wind_mph": 0.0,
        "wind_gust_mph": "1.2",
        "wind_kph": 0,
        "wind_gust_kph": "1.9",
        "pressure_mb": "1010",
        "pressure_in": "29.83",
        "pressure_trend": "0",
        "dewpoint_string": "59 F (15 C)",
        "dewpoint_f": 59,
        "dewpoint_c": 15,
        "heat_index_string": "NA",
        "heat_index_f": "NA",
        "heat_index_c": "NA",
        "windchill_string": "NA",
        "windchill_f": "NA",
        "windchill_c": "NA",
        "feelslike_string": "64.0 F (17.8 C)",
        "feelslike_f": "64.0",
        "feelslike_c": "17.8",
        "visibility_mi": "5.0",
        "visibility_km": "8.0",
        "solarradiation": "--",
        "precip_1hr_string": "-999.00 in ( 0 mm)",
        "precip_1hr_in": "-999.00",
        "precip_1hr_metric": " 0",
        "precip_today_string": "0.01 in (0 mm)",
        "precip_today_in": "0.01",
        "precip_today_metric": "0",
        "icon": "hazy",
        "icon_url": "http://icons.wxug.com/i/c/k/hazy.gif",
        "forecast_url": "http://www.wunderground.com/global/stations/03761.html",
        "history_url": "http://www.wunderground.com/weatherstation/WXDailyHistory.asp?ID=ICHINEHA7",
        "ob_url": "http://www.wunderground.com/cgi-bin/findweather/getForecast?query=51.302277,-1.048548",
        "nowcast": ""
    }
}
